{"sort":"popularity","view":"list","artists":[{"id":62129,"title":"Foster the People","permalink":"/artists/foster-the-people","data_path":"/artists/62129/quickie","hometown":"Los Angeles, EUA","popularity":73735.0,"fans":73540,"all_stars":237,"imagery":{"default":"v1393696738/band-62129.jpg","icon":"v1393696738/band-62129.jpg"}},{"id":71998,"title":"Ludacris","permalink":"/artists/ludacris","data_path":"/artists/71998/quickie","hometown":"Atlanta, Georgia","popularity":52660.0,"fans":52489,"all_stars":221,"imagery":{"default":"v1393707443/band-71998.jpg","icon":"v1393707443/band-71998.jpg"}},{"id":43136,"title":"The Kooks","permalink":"/artists/the-kooks","data_path":"/artists/43136/quickie","hometown":"Brighton, United Kingdom","popularity":49573.0,"fans":49948,"all_stars":15,"imagery":{"default":"v1393661858/band-43136.jpg","icon":"v1392156239/band-icon-43136.jpg"}},{"id":99129,"title":"Young the Giant","permalink":"/artists/young-the-giant","data_path":"/artists/99129/quickie","hometown":"Irvine, CA","popularity":48473.0,"fans":48510,"all_stars":11,"imagery":{"default":"v1393727027/band-99129.jpg","icon":"v1393727027/band-99129.jpg"}},{"id":133198,"title":"Childish Gambino","permalink":"/artists/childish-gambino","data_path":"/artists/133198/quickie","hometown":"Stone Mountain","popularity":45821.0,"fans":45627,"all_stars":230,"imagery":{"default":"v1393169106/band-133198.png","icon":"v1393169106/band-133198.png"}},{"id":80120,"title":"Gary Numan","permalink":"/artists/gary-numan","data_path":"/artists/80120/quickie","hometown":"Los Angeles","popularity":39959.0,"fans":68,"all_stars":8,"imagery":{"default":"v1393715648/band-80120.jpg","icon":"v1392229204/band-icon-80120.jpg"}},{"id":35807,"title":"St. Vincent","permalink":"/artists/st-vincent-","data_path":"/artists/35807/quickie","hometown":"Un","popularity":31242.0,"fans":31261,"all_stars":33,"imagery":{"default":"v1390021620/band-35807.jpg","icon":"v1390021620/band-35807.jpg"}},{"id":42413,"title":"ALICE COOPER","permalink":"/artists/alice-cooper","data_path":"/artists/42413/quickie","hometown":"PHOENIX, AZ","popularity":30855.0,"fans":30642,"all_stars":225,"imagery":{"default":"v1393661039/band-42413.jpg","icon":"v1393661039/band-42413.jpg"}},{"id":172556,"title":"The Black Lips","permalink":"/artists/black-lips","data_path":"/artists/172556/quickie","hometown":"Atlanta, GA","popularity":30757.0,"fans":30749,"all_stars":44,"imagery":{"default":"v1392614962/band-172556.png","icon":"v1392614962/band-172556.png"}},{"id":129186,"title":"Emily King","permalink":"/artists/emily-king","data_path":"/artists/129186/quickie","hometown":"New York City ","popularity":29993.0,"fans":18,"all_stars":4,"imagery":{"default":"v1393164017/band-129186.jpg","icon":"v1393164017/band-129186.jpg"}},{"id":37856,"title":"Saul Williams","permalink":"/artists/saul-williams","data_path":"/artists/37856/quickie","hometown":"Los Angeles CA","popularity":29992.0,"fans":57,"all_stars":8,"imagery":{"default":"v1393654735/band-37856.jpg","icon":"v1392228399/band-icon-37856.jpg"}},{"id":52491,"title":"Ume","permalink":"/artists/ume","data_path":"/artists/52491/quickie","hometown":"Austin, TX","popularity":29961.0,"fans":429,"all_stars":265,"imagery":{"default":"v1393679646/band-52491.jpg","icon":"v1393679646/band-52491.jpg"}},{"id":45781,"title":"Zeale","permalink":"/artists/zeale","data_path":"/artists/45781/quickie","hometown":"Austin, Texas","popularity":29959.0,"fans":266,"all_stars":185,"imagery":{"default":"v1393665140/band-45781.jpg","icon":"v1392227203/band-icon-45781.jpg"}},{"id":51309,"title":"Blondie","permalink":"/artists/blondie","data_path":"/artists/51309/quickie","hometown":"","popularity":29943.0,"fans":225,"all_stars":48,"imagery":{"default":"v1393676831/band-51309.jpg","icon":"v1393676831/band-51309.jpg"}},{"id":50102,"title":"The Bright Light Social Hour","permalink":"/artists/the-bright-light-social-hour","data_path":"/artists/50102/quickie","hometown":"Austin, Texas","popularity":29942.0,"fans":558,"all_stars":187,"imagery":{"default":"v1393674403/band-50102.jpg","icon":"v1393674403/band-50102.jpg"}},{"id":211206,"title":"Charli XCX","permalink":"/artists/charli-xcx","data_path":"/artists/211206/quickie","hometown":"London. UK","popularity":28948.0,"fans":259,"all_stars":25,"imagery":{"default":"v1392655071/band-211206.jpg","icon":"v1392227945/band-icon-211206.jpg"}},{"id":47507,"title":"Phantogram","permalink":"/artists/phantogram","data_path":"/artists/47507/quickie","hometown":"Saratoga Springs, NY","popularity":28784.0,"fans":29247,"all_stars":44,"imagery":{"default":"v1393667994/band-47507.jpg","icon":"v1393667994/band-47507.jpg"}},{"id":50217,"title":"Little Dragon","permalink":"/artists/little-dragon","data_path":"/artists/50217/quickie","hometown":"Gothenburg, Sweden","popularity":24744.0,"fans":24744,"all_stars":28,"imagery":{"default":"v1393674764/band-50217.jpg","icon":"v1393674764/band-50217.jpg"}},{"id":46233,"title":"The Joy Formidable","permalink":"/artists/the-joy-formidable","data_path":"/artists/46233/quickie","hometown":"Wales","popularity":22073.0,"fans":22093,"all_stars":18,"imagery":{"default":"v1393665886/band-46233.jpg","icon":"v1393665886/band-46233.jpg"}},{"id":58605,"title":"YelaWolf","permalink":"/artists/yelawolf-","data_path":"/artists/58605/quickie","hometown":"Gadsden, AL","popularity":20684.0,"fans":20686,"all_stars":8,"imagery":{"default":"v1393690717/band-58605.jpg","icon":"v1393690717/band-58605.jpg"}},{"id":34342,"title":"White Denim","permalink":"/artists/white-denim","data_path":"/artists/34342/quickie","hometown":"Austin, Texas","popularity":15692.0,"fans":15618,"all_stars":109,"imagery":{"default":"v1393650005/band-34342.jpg","icon":"v1393650005/band-34342.jpg"}},{"id":116324,"title":"Kendrick Lamar","permalink":"/artists/kendrick-lamar","data_path":"/artists/116324/quickie","hometown":"Compton, California, United States","popularity":15128.0,"fans":15152,"all_stars":23,"imagery":{"default":"v1393747974/band-116324.jpg","icon":"v1393747974/band-116324.jpg"}},{"id":60620,"title":"NEEDTOBREATHE","permalink":"/artists/needtobreathe","data_path":"/artists/60620/quickie","hometown":"Charleston, SC","popularity":13349.0,"fans":13359,"all_stars":0,"imagery":{"default":"v1393694729/band-60620.jpg","icon":"v1393694729/band-60620.jpg"}},{"id":94411,"title":"Axwell","permalink":"/artists/axwell","data_path":"/artists/94411/quickie","hometown":"Stockholm, Sweden","popularity":9006.0,"fans":9014,"all_stars":0,"imagery":{"default":"v1393724339/band-94411.jpg","icon":"v1393724339/band-94411.jpg"}},{"id":125092,"title":"Danny Brown","permalink":"/artists/danny-brown","data_path":"/artists/125092/quickie","hometown":"Detroit, Michigan","popularity":8554.0,"fans":8530,"all_stars":41,"imagery":{"default":"v1393157177/band-125092.jpg","icon":"v1393157177/band-125092.jpg"}},{"id":41834,"title":"Moon Taxi","permalink":"/artists/moon-taxi","data_path":"/artists/41834/quickie","hometown":"Nashville, TN","popularity":8462.0,"fans":8587,"all_stars":3,"imagery":{"default":"v1393660193/band-41834.jpg","icon":"v1393660193/band-41834.jpg"}},{"id":48144,"title":"Big Boi","permalink":"/artists/big-boi-","data_path":"/artists/48144/quickie","hometown":"Atlanta, GA","popularity":8082.0,"fans":8115,"all_stars":23,"imagery":{"default":"v1393669576/band-48144.jpg","icon":"v1393669576/band-48144.jpg"}},{"id":145741,"title":"Zedd","permalink":"/artists/zedd","data_path":"/artists/145741/quickie","hometown":"Kaiserslautern","popularity":7860.0,"fans":7875,"all_stars":3,"imagery":{"default":"v1393182336/band-145741.jpg","icon":"v1393182336/band-145741.jpg"}},{"id":17848,"title":"KiD CuDi","permalink":"/artists/kid-cudi","data_path":"/artists/17848/quickie","hometown":"Cleveland, Ohio","popularity":7193.0,"fans":7232,"all_stars":19,"imagery":{"default":"v1393647574/band-17848.jpg","icon":"v1393647574/band-17848.jpg"}},{"id":68724,"title":"Nervo","permalink":"/artists/nervo","data_path":"/artists/68724/quickie","hometown":"Melbourne, Australia but based in London","popularity":6835.0,"fans":6846,"all_stars":1,"imagery":{"default":"v1393704690/band-68724.jpg","icon":"v1393704690/band-68724.jpg"}},{"id":224098,"title":"EMA","permalink":"/artists/ema-","data_path":"/artists/224098/quickie","hometown":"","popularity":6647.0,"fans":6609,"all_stars":16,"imagery":{"default":"v1392671749/band-224098.jpg","icon":"v1392671749/band-224098.jpg"}},{"id":98822,"title":"Zeds Dead","permalink":"/artists/zeds-dead","data_path":"/artists/98822/quickie","hometown":"Toronto","popularity":6636.0,"fans":6645,"all_stars":5,"imagery":{"default":"v1393726835/band-98822.jpg","icon":"v1393726835/band-98822.jpg"}},{"id":96273,"title":"Big Freedia","permalink":"/artists/big-freedia","data_path":"/artists/96273/quickie","hometown":"New Orleans, LA","popularity":6152.0,"fans":6335,"all_stars":13,"imagery":{"default":"v1393725537/band-96273.jpg","icon":"v1393725537/band-96273.jpg"}},{"id":187836,"title":"A-Trak","permalink":"/artists/a-trak","data_path":"/artists/187836/quickie","hometown":"Montreal","popularity":5975.0,"fans":5946,"all_stars":57,"imagery":{"default":"v1392625791/band-187836.jpg","icon":"v1392625791/band-187836.jpg"}},{"id":166102,"title":"Adventure Club","permalink":"/artists/adventure-club","data_path":"/artists/166102/quickie","hometown":"Montreal","popularity":5066.0,"fans":5085,"all_stars":1,"imagery":{"default":"v1392611010/band-166102.jpg","icon":"v1392611010/band-166102.jpg"}},{"id":42356,"title":"Beck","permalink":"/artists/beck","data_path":"/artists/42356/quickie","hometown":"Los Angeles, CA","popularity":4259.0,"fans":4294,"all_stars":27,"imagery":{"default":"v1393660973/band-42356.jpg","icon":"v1393660973/band-42356.jpg"}},{"id":86920,"title":"Calvin Harris","permalink":"/artists/calvin-harris","data_path":"/artists/86920/quickie","hometown":"Dumfries, Scotland, United Kingdom","popularity":4042.0,"fans":4068,"all_stars":16,"imagery":{"default":"v1393720564/band-86920.jpg","icon":"v1393720564/band-86920.jpg"}},{"id":196620,"title":"Mord Fustang","permalink":"/artists/mord-fustang","data_path":"/artists/196620/quickie","hometown":"Tallinn, Estonia","popularity":3911.0,"fans":3916,"all_stars":1,"imagery":{"default":"v1392635127/band-196620.jpg","icon":"v1392635127/band-196620.jpg"}},{"id":60621,"title":"Sleigh Bells","permalink":"/artists/sleigh-bells","data_path":"/artists/60621/quickie","hometown":"Brooklyn, NY, Florida","popularity":3651.0,"fans":3626,"all_stars":68,"imagery":{"default":"v1393694738/band-60621.jpg","icon":"v1393694738/band-60621.jpg"}},{"id":413733,"title":"3lau","permalink":"/artists/3lau","data_path":"/artists/413733/quickie","hometown":"Las Vegas","popularity":3371.0,"fans":3444,"all_stars":0,"imagery":{"default":"v1390289263/band-413733.jpg","icon":"v1390289263/band-413733.jpg"}},{"id":58033,"title":"Best Coast","permalink":"/artists/best-coast","data_path":"/artists/58033/quickie","hometown":"Los Angeles","popularity":3358.0,"fans":3237,"all_stars":141,"imagery":{"default":"v1393689370/band-58033.jpg","icon":"v1393689370/band-58033.jpg"}},{"id":87802,"title":"Oberhofer","permalink":"/artists/oberhofer","data_path":"/artists/87802/quickie","hometown":"Tacoma, WA","popularity":3258.0,"fans":3248,"all_stars":26,"imagery":{"default":"v1393721038/band-87802.jpg","icon":"v1393721038/band-87802.jpg"}},{"id":58897,"title":"Congorock","permalink":"/artists/congorock","data_path":"/artists/58897/quickie","hometown":"Lecce / Los Angeles","popularity":3207.0,"fans":2882,"all_stars":72,"imagery":{"default":"v1393691462/band-58897.jpg","icon":"v1393691462/band-58897.jpg"}},{"id":55758,"title":"Washed Out","permalink":"/artists/washed-out","data_path":"/artists/55758/quickie","hometown":"Georgia","popularity":3077.0,"fans":2991,"all_stars":108,"imagery":{"default":"v1393686200/band-55758.jpg","icon":"v1393686200/band-55758.jpg"}},{"id":110437,"title":"Alvin Risk","permalink":"/artists/alvin-risk","data_path":"/artists/110437/quickie","hometown":"DC, Washington DC, United States","popularity":3070.0,"fans":3072,"all_stars":2,"imagery":{"default":"v1393740792/band-110437.jpg","icon":"v1393740792/band-110437.jpg"}},{"id":108171,"title":"Paper Diamond","permalink":"/artists/paper-diamond","data_path":"/artists/108171/quickie","hometown":"Colorado","popularity":3011.0,"fans":3015,"all_stars":4,"imagery":{"default":"v1393738080/band-108171.jpg","icon":"v1393738080/band-108171.jpg"}},{"id":41275,"title":"Bear Hands","permalink":"/artists/bear-hands","data_path":"/artists/41275/quickie","hometown":"Brooklyn NY","popularity":2894.0,"fans":157,"all_stars":87,"imagery":{"default":"v1393659369/band-41275.jpg","icon":"v1393659369/band-41275.jpg"}},{"id":82069,"title":"Tennis","permalink":"/artists/tennis","data_path":"/artists/82069/quickie","hometown":"Denver","popularity":2806.0,"fans":2793,"all_stars":25,"imagery":{"default":"v1393717054/band-82069.jpg","icon":"v1393717054/band-82069.jpg"}},{"id":48337,"title":"Kill the Noise","permalink":"/artists/kill-the-noise-","data_path":"/artists/48337/quickie","hometown":"Los Angeles, CA","popularity":2783.0,"fans":2720,"all_stars":73,"imagery":{"default":"v1393670084/band-48337.jpg","icon":"v1393670084/band-48337.jpg"}},{"id":70662,"title":"Nero","permalink":"/artists/nero","data_path":"/artists/70662/quickie","hometown":"London","popularity":2566.0,"fans":2586,"all_stars":4,"imagery":{"default":"v1393706339/band-70662.jpg","icon":"v1393706339/band-70662.jpg"}}],"paging":{"entry_name":"artists","first":1,"last":50,"count":4709,"path":"/artists","formatted_count":"4,709","page_size":50,"total_pages":95,"current_page":1,"offset_value":0,"listing_ad_position":25,"label":"artists"},"photos_base":"http://res.cloudinary.com/dostuff-media/image/upload/","api_version":0.001}